Event,Time (s)
Scenario load,0.0460875000000005
Variable creation,0.5167621000000002
Constraint creation,26.7707884
Objective creation,0.07090409999999991
Optimization,0.12954280000000296
Full process,27.534084900000003
