Event,Time (s)
Scenario load,0.0024535000000001084
Variable creation,0.11444659999999995
Constraint creation,0.5108492
Objective creation,0.003756899999999952
Optimization,0.015847100000000225
Full process,0.6473533000000002
