Event,Time (s)
Scenario load,0.0001558999999999866
Variable creation,0.1379623000000001
Constraint creation,0.49374989999999985
Objective creation,0.36751699999999987
Optimization,0.019567700000000077
Full process,1.0189527999999999
